…
From the tidy tuesday readme:

> 248 cheeses have listed fat content. Is there a relationship between
> fat content and cheese type? What about texture, flavor, or aroma?

Let’s start by looking at the fat content column.

``` r
# needs repair to be numeric
cheeses |>
  count(fat_content)
#> # A tibble: 86 × 2
#>    fat_content     n
#>    <chr>       <int>
#>  1 0 g/100g        1
#>  2 10%             1
#>  3 11%             1
#>  4 12%             5
#>  5 13%             1
#>  6 14 g/100g       1
#>  7 14%             3
#>  8 15%             1
#>  9 15-25%          1
#> 10 17%             1
#> # ℹ 76 more rows
…
Now cheese type.

``` r
# cheese name is not helpful: each row is unique
cheeses |> 
  count(n_distinct(cheese))
#> # A tibble: 1 × 2
#>   `n_distinct(cheese)`     n
#>                  <int> <int>
#> 1                 1187  1187

# subcategorizing by animal source could be interesting
cheeses |> 
  count(milk, sort = TRUE)
#> # A tibble: 22 × 2
#>    milk                 n
#>    <chr>            <int>
#>  1 cow                696
#>  2 goat               195
#>  3 sheep              128
#>  4 <NA>                36
#>  5 cow, goat           25
#>  6 cow, goat, sheep    21
#>  7 cow, sheep          21
#>  8 goat, sheep         21
#>  9 water buffalo       14
#> 10 plant-based          6
#> # ℹ 12 more rows
```
…
